<?xml version="1.0" encoding="UTF-8"?>
<CustomTab xmlns="http://soap.sforce.com/2006/04/metadata">
    <label>CalendarAnything Mobile</label>
    <mobileReady>false</mobileReady>
    <motif>Custom235: TV Widescreen</motif>
    <page>casf1__CaAngularSF</page>
</CustomTab>
