<?xml version="1.0" encoding="UTF-8"?>
<CustomTab xmlns="http://soap.sforce.com/2006/04/metadata">
    <label>CommunityHome</label>
    <mobileReady>false</mobileReady>
    <motif>Custom13: Box</motif>
    <page>AuthenticatedHomePage</page>
</CustomTab>
