<?xml version="1.0" encoding="UTF-8"?>
<CustomTab xmlns="http://soap.sforce.com/2006/04/metadata">
    <description>US2641 DRAFT US-3885</description>
    <label>Demo Request Form</label>
    <mobileReady>false</mobileReady>
    <motif>Custom20: Airplane</motif>
    <page>DemoRequestForm</page>
</CustomTab>
