<?xml version="1.0" encoding="UTF-8"?>
<CustomTab xmlns="http://soap.sforce.com/2006/04/metadata">
    <label>Listware Results/Summary</label>
    <mobileReady>false</mobileReady>
    <motif>Custom84: Presenter</motif>
    <page>MDPERSONATOR__MD_stats</page>
</CustomTab>
