<?xml version="1.0" encoding="UTF-8"?>
<CustomTab xmlns="http://soap.sforce.com/2006/04/metadata">
    <description>Administration tab for Listware for Salesforce</description>
    <label>Listware Administration</label>
    <mobileReady>false</mobileReady>
    <motif>Custom21: Computer</motif>
    <page>MDPERSONATOR__MD_administration</page>
</CustomTab>
