<?xml version="1.0" encoding="UTF-8"?>
<CustomTab xmlns="http://soap.sforce.com/2006/04/metadata">
    <label>My Favorites</label>
    <mobileReady>true</mobileReady>
    <motif>Custom1: Heart</motif>
    <page>MyFavorites</page>
</CustomTab>
