<?xml version="1.0" encoding="UTF-8"?>
<CustomTab xmlns="http://soap.sforce.com/2006/04/metadata">
    <customObject>true</customObject>
    <description>In the Product hierarchy, Products will be grouped underneath. This will have a Master-Detail relationship with Products.</description>
    <mobileReady>false</mobileReady>
    <motif>Custom13: Box</motif>
</CustomTab>
