<?xml version="1.0" encoding="UTF-8"?>
<CustomTab xmlns="http://soap.sforce.com/2006/04/metadata">
    <description>This is tab for Urology Division which will provide all sites helpful for Sales Rep with ref. to US2689</description>
    <label>Urology Sites</label>
    <mobileReady>true</mobileReady>
    <motif>Custom68: Globe</motif>
    <page>UrologyHomePageLinks</page>
</CustomTab>
